Systems Immunology Bootcamp - A simple model
…
[1] 2.665212

Now we can use purrr to compute the distance for all the models defined above. We need a helper function because our distance function expects the model as a numeric vector of length 2.

sim1_dist <- function(a1, a2) {
  measure_distance(c(a1, a2), sim1)
}

models <- models %>% 
  mutate(dist = purrr::map2_dbl(a1, a2, sim1_dist))

models

# A tibble: 250 × 3
        a1     a2  dist
     <dbl>  <dbl> <dbl>
 1  19.9    3.58  24.6 
 2 -19.0    1.39  27.1 
 3  15.4   -4.58  31.7 
 4 -10.4    2.50  12.5 
 5  -3.09  -3.66  42.1 
 6  -8.77  -2.78  42.0 
 7   0.409 -3.35  37.0 
 8  11.1    1.74   5.61
 9  13.9    0.118  6.03
10 -16.3   -3.50  53.5 
# ℹ 240 more rows
…
