Systems Immunology Bootcamp - Reshaping and Joining Data
…
Reshaping and Joining Data

Reshaping data

In the rna tibble, the rows contain expression values (the unit) that are associated with a combination of 2 other variables: gene and sample.

All the other columns correspond to variables describing either the sample (organism, age, sex, …) or the gene (gene_biotype, ENTREZ_ID, product, …). The variables that don’t change with genes or with samples will have the same value in all the rows.

rna %>%
  arrange(gene)

# A tibble: 32,428 × 19
   gene     sample expression organism   age sex   infection strain  time tissue
   <chr>    <chr>       <dbl> <chr>    <dbl> <chr> <chr>     <chr>  <dbl> <chr> 
 1 AI504432 GSM25…       1230 Mus mus…     8 Fema… Influenz… C57BL…     8 Cereb…
 2 AI504432 GSM25…       1085 Mus mus…     8 Fema… NonInfec… C57BL…     0 Cereb…
 3 AI504432 GSM25…        969 Mus mus…     8 Fema… NonInfec… C57BL…     0 Cereb…
 4 AI504432 GSM25…       1284 Mus mus…     8 Fema… Influenz… C57BL…     4 Cereb…
 5 AI504432 GSM25…        966 Mus mus…     8 Male  Influenz… C57BL…     4 Cereb…
 6 AI504432 GSM25…        918 Mus mus…     8 Male  Influenz… C57BL…     8 Cereb…
 7 AI504432 GSM25…        985 Mus mus…     8 Fema… Influenz… C57BL…     8 Cereb…
 8 AI504432 GSM25…        972 Mus mus…     8 Male  NonInfec… C57BL…     0 Cereb…
 9 AI504432 GSM25…       1000 Mus mus…     8 Fema… Influenz… C57BL…     4 Cereb…
10 AI504432 GSM25…        816 Mus mus…     8 Male  Influenz… C57BL…     4 Cereb…
# ℹ 32,418 more rows
# ℹ 9 more variables: mouse <dbl>, ENTREZID <dbl>, product <chr>,
#   ensembl_gene_id <chr>, external_synonym <chr>, chromosome_name <chr>,
#   gene_biotype <chr>, phenotype_description <chr>,
#   hsapiens_homolog_associated_gene_name <chr>

This structure is called a long-format, as one column contains all the values, and other column(s) list(s) the context of the value.

In certain cases, the long-format is not really “human-readable”, and another format, a wide-format is preferred, as a more compact way of representing the data. This is typically the case with gene expression values that scientists are used to look as matrices, were rows represent genes and columns represent samples.

In this format, it would therefore become straightforward to explore the relationship between the gene expression levels within, and between, the samples.

# A tibble: 1,474 × 23
   gene    GSM2545336 GSM2545337 GSM2545338 GSM2545339 GSM2545340 GSM2545341
   <chr>        <dbl>      <dbl>      <dbl>      <dbl>      <dbl>      <dbl>
 1 Asl           1170        361        400        586        626        988
 2 Apod         36194      10347       9173      10620      13021      29594
 3 Cyp2d22       4060       1616       1603       1901       2171       3349
 4 Klk6           287        629        641        578        448        195
 5 Fcrls           85        233        244        237        180         38
 6 Slc2a4         782        231        248        265        313        786
 7 Exd2          1619       2288       2235       2513       2366       1359
 8 Gjc2           288        595        568        551        310        146
 9 Plp1         43217     101241      96534      58354      53126      27173
10 Gnb4          1071       1791       1867       1430       1355        798
# ℹ 1,464 more rows
# ℹ 16 more variables: GSM2545342 <dbl>, GSM2545343 <dbl>, GSM2545344 <dbl>,
#   GSM2545345 <dbl>, GSM2545346 <dbl>, GSM2545347 <dbl>, GSM2545348 <dbl>,
#   GSM2545349 <dbl>, GSM2545350 <dbl>, GSM2545351 <dbl>, GSM2545352 <dbl>,
#   GSM2545353 <dbl>, GSM2545354 <dbl>, GSM2545362 <dbl>, GSM2545363 <dbl>,
#   GSM2545380 <dbl>
…
The key point here is that we are still following a tidy data structure, but we have reshaped the data according to the observations of interest: expression levels per gene instead of recording them per gene and per sample.

The opposite transformation would be to transform column names into values of a new variable.

We can do both these of transformations with two tidyr functions, pivot_longer() and pivot_wider() (see here for details).

Pivoting the data into a wider format

Let’s select the first 3 columns of rna and use pivot_wider() to transform the data into a wide-format.

rna_exp <- rna %>%
  select(gene, sample, expression)
rna_exp

# A tibble: 32,428 × 3
   gene    sample     expression
   <chr>   <chr>           <dbl>
 1 Asl     GSM2545336       1170
 2 Apod    GSM2545336      36194
 3 Cyp2d22 GSM2545336       4060
 4 Klk6    GSM2545336        287
 5 Fcrls   GSM2545336         85
 6 Slc2a4  GSM2545336        782
 7 Exd2    GSM2545336       1619
 8 Gjc2    GSM2545336        288
 9 Plp1    GSM2545336      43217
10 Gnb4    GSM2545336       1071
# ℹ 32,418 more rows
…
Wide pivot of the rna data.

rna_wide <- rna_exp %>%
  pivot_wider(names_from = sample,
              values_from = expression)
rna_wide

# A tibble: 1,474 × 23
   gene    GSM2545336 GSM2545337 GSM2545338 GSM2545339 GSM2545340 GSM2545341
   <chr>        <dbl>      <dbl>      <dbl>      <dbl>      <dbl>      <dbl>
 1 Asl           1170        361        400        586        626        988
 2 Apod         36194      10347       9173      10620      13021      29594
 3 Cyp2d22       4060       1616       1603       1901       2171       3349
 4 Klk6           287        629        641        578        448        195
 5 Fcrls           85        233        244        237        180         38
 6 Slc2a4         782        231        248        265        313        786
 7 Exd2          1619       2288       2235       2513       2366       1359
 8 Gjc2           288        595        568        551        310        146
 9 Plp1         43217     101241      96534      58354      53126      27173
10 Gnb4          1071       1791       1867       1430       1355        798
# ℹ 1,464 more rows
# ℹ 16 more variables: GSM2545342 <dbl>, GSM2545343 <dbl>, GSM2545344 <dbl>,
#   GSM2545345 <dbl>, GSM2545346 <dbl>, GSM2545347 <dbl>, GSM2545348 <dbl>,
#   GSM2545349 <dbl>, GSM2545350 <dbl>, GSM2545351 <dbl>, GSM2545352 <dbl>,
#   GSM2545353 <dbl>, GSM2545354 <dbl>, GSM2545362 <dbl>, GSM2545363 <dbl>,
#   GSM2545380 <dbl>
…
Long pivot of the rna data.

To recreate rna_long from rna_wide we would create a key called sample and value called expression and use all columns except gene for the key variable. Here we drop gene column with a minus sign.

Notice how the new variable names are to be quoted here.

rna_long <- rna_wide %>%
    pivot_longer(names_to = "sample",
                 values_to = "expression",
                 -gene)
rna_long

# A tibble: 32,428 × 3
   gene  sample     expression
   <chr> <chr>           <dbl>
 1 Asl   GSM2545336       1170
 2 Asl   GSM2545337        361
 3 Asl   GSM2545338        400
 4 Asl   GSM2545339        586
 5 Asl   GSM2545340        626
 6 Asl   GSM2545341        988
 7 Asl   GSM2545342        836
 8 Asl   GSM2545343        535
 9 Asl   GSM2545344        586
10 Asl   GSM2545345        597
# ℹ 32,418 more rows

We could also have used a specification for what columns to include. This can be useful if you have a large number of identifying columns, and it’s easier to specify what to gather than what to leave alone. Here the starts_with() function can help to retrieve sample names without having to list them all! Another possibility would be to use the : operator!

rna_wide %>%
    pivot_longer(names_to = "sample",
                 values_to = "expression",
                 cols = starts_with("GSM"))

# A tibble: 32,428 × 3
   gene  sample     expression
   <chr> <chr>           <dbl>
 1 Asl   GSM2545336       1170
 2 Asl   GSM2545337        361
 3 Asl   GSM2545338        400
 4 Asl   GSM2545339        586
 5 Asl   GSM2545340        626
 6 Asl   GSM2545341        988
 7 Asl   GSM2545342        836
 8 Asl   GSM2545343        535
 9 Asl   GSM2545344        586
10 Asl   GSM2545345        597
# ℹ 32,418 more rows

rna_wide %>%
    pivot_longer(names_to = "sample",
                 values_to = "expression",
                 GSM2545336:GSM2545380)

# A tibble: 32,428 × 3
   gene  sample     expression
   <chr> <chr>           <dbl>
 1 Asl   GSM2545336       1170
 2 Asl   GSM2545337        361
 3 Asl   GSM2545338        400
 4 Asl   GSM2545339        586
 5 Asl   GSM2545340        626
 6 Asl   GSM2545341        988
 7 Asl   GSM2545342        836
 8 Asl   GSM2545343        535
 9 Asl   GSM2545344        586
10 Asl   GSM2545345        597
# ℹ 32,418 more rows
…
Pivoting to wider and longer formats can be a useful way to balance out a dataset so every replicate has the same composition.

Question

Starting from the rna table, use the pivot_wider() function to create a wide-format table giving the gene expression levels in each mouse. Then use the pivot_longer() function to restore a long-format table.

Solution

rna1 <- rna %>%
select(gene, mouse, expression) %>%
pivot_wider(names_from = mouse, values_from = expression)
rna1

# A tibble: 1,474 × 23
   gene     `14`    `9`  `10`  `15`  `18`   `6`   `5`  `11`  `22`  `13`  `23`
   <chr>   <dbl>  <dbl> <dbl> <dbl> <dbl> <dbl> <dbl> <dbl> <dbl> <dbl> <dbl>
 1 Asl      1170    361   400   586   626   988   836   535   586   597   938
 2 Apod    36194  10347  9173 10620 13021 29594 24959 13668 13230 15868 27769
 3 Cyp2d22  4060   1616  1603  1901  2171  3349  3122  2008  2254  2277  2985
 4 Klk6      287    629   641   578   448   195   186  1101   537   567   327
 5 Fcrls      85    233   244   237   180    38    68   375   199   177    89
 6 Slc2a4    782    231   248   265   313   786   528   249   266   357   654
 7 Exd2     1619   2288  2235  2513  2366  1359  1474  3126  2379  2173  1531
 8 Gjc2      288    595   568   551   310   146   186   791   454   370   240
 9 Plp1    43217 101241 96534 58354 53126 27173 28728 98658 61356 61647 38019
10 Gnb4     1071   1791  1867  1430  1355   798   806  2437  1394  1554   960
# ℹ 1,464 more rows
# ℹ 11 more variables: `24` <dbl>, `8` <dbl>, `7` <dbl>, `1` <dbl>, `16` <dbl>,
#   `21` <dbl>, `4` <dbl>, `2` <dbl>, `20` <dbl>, `12` <dbl>, `19` <dbl>

rna1 %>%
pivot_longer(names_to = "mouse_id", values_to = "counts", -gene)

# A tibble: 32,428 × 3
   gene  mouse_id counts
   <chr> <chr>     <dbl>
 1 Asl   14         1170
 2 Asl   9           361
 3 Asl   10          400
 4 Asl   15          586
 5 Asl   18          626
 6 Asl   6           988
 7 Asl   5           836
 8 Asl   11          535
 9 Asl   22          586
10 Asl   13          597
# ℹ 32,418 more rows
…
Use the rna dataset to create an expression matrix where each row represents the mean expression levels of genes and columns represent the different timepoints.

Solution

Let’s first calculate the mean expression by gene and by time

rna %>%
  group_by(gene, time) %>%
  summarise(mean_exp = mean(expression))

`summarise()` has grouped output by 'gene'. You can override using the
`.groups` argument.

# A tibble: 4,422 × 3
# Groups:   gene [1,474]
   gene      time mean_exp
   <chr>    <dbl>    <dbl>
 1 AI504432     0    1034.
 2 AI504432     4    1104.
 3 AI504432     8    1014 
 4 AW046200     0     155.
 5 AW046200     4     152.
 6 AW046200     8      81 
 7 AW551984     0     238 
 8 AW551984     4     302.
 9 AW551984     8     342.
10 Aamp         0    4603.
# ℹ 4,412 more rows

before using the pivot_wider() function

rna_time <- rna %>%
  group_by(gene, time) %>%
  summarise(mean_exp = mean(expression)) %>%
  pivot_wider(names_from = time,
              values_from = mean_exp)

`summarise()` has grouped output by 'gene'. You can override using the
`.groups` argument.

rna_time

# A tibble: 1,474 × 4
# Groups:   gene [1,474]
   gene         `0`     `4`     `8`
   <chr>      <dbl>   <dbl>   <dbl>
 1 AI504432 1034.   1104.   1014   
 2 AW046200  155.    152.     81   
 3 AW551984  238     302.    342.  
 4 Aamp     4603.   4870    4763.  
 5 Abca12      5.29    4.25    4.14
 6 Abcc8    2576.   2609.   2292.  
 7 Abhd14a   591.    547.    432.  
 8 Abi2     4881.   4903.   4945.  
 9 Abi3bp   1175.   1061.    762.  
10 Abl2     2170.   2078.   2131.  
# ℹ 1,464 more rows

Notice that this generates a tibble with some column names starting by a number. If we wanted to select the column corresponding to the timepoints, we could not use the column names directly… What happens when we select the column 4?

rna %>%
  group_by(gene, time) %>%
  summarise(mean_exp = mean(expression)) %>%
  pivot_wider(names_from = time,
              values_from = mean_exp) %>%
  select(gene, 4)

`summarise()` has grouped output by 'gene'. You can override using the
`.groups` argument.

# A tibble: 1,474 × 2
# Groups:   gene [1,474]
   gene         `8`
   <chr>      <dbl>
 1 AI504432 1014   
 2 AW046200   81   
 3 AW551984  342.  
 4 Aamp     4763.  
 5 Abca12      4.14
 6 Abcc8    2292.  
 7 Abhd14a   432.  
 8 Abi2     4945.  
 9 Abi3bp    762.  
10 Abl2     2131.  
# ℹ 1,464 more rows

To select the timepoint 4, we would have to quote the column name, with backticks “`”

rna %>%
  group_by(gene, time) %>%
  summarise(mean_exp = mean(expression)) %>%
  pivot_wider(names_from = time,
              values_from = mean_exp) %>%
  select(gene, `4`)

`summarise()` has grouped output by 'gene'. You can override using the
`.groups` argument.

# A tibble: 1,474 × 2
# Groups:   gene [1,474]
   gene         `4`
   <chr>      <dbl>
 1 AI504432 1104.  
 2 AW046200  152.  
 3 AW551984  302.  
 4 Aamp     4870   
 5 Abca12      4.25
 6 Abcc8    2609.  
 7 Abhd14a   547.  
 8 Abi2     4903.  
 9 Abi3bp   1061.  
10 Abl2     2078.  
# ℹ 1,464 more rows

Another possibility would be to rename the column, choosing a name that doesn’t start by a number :

rna %>%
  group_by(gene, time) %>%
  summarise(mean_exp = mean(expression)) %>%
  pivot_wider(names_from = time,
              values_from = mean_exp) %>%
  rename("time0" = `0`, "time4" = `4`, "time8" = `8`) %>%
  select(gene, time4)

`summarise()` has grouped output by 'gene'. You can override using the
`.groups` argument.

# A tibble: 1,474 × 2
# Groups:   gene [1,474]
   gene       time4
   <chr>      <dbl>
 1 AI504432 1104.  
 2 AW046200  152.  
 3 AW551984  302.  
 4 Aamp     4870   
 5 Abca12      4.25
 6 Abcc8    2609.  
 7 Abhd14a   547.  
 8 Abi2     4903.  
 9 Abi3bp   1061.  
10 Abl2     2078.  
# ℹ 1,464 more rows

Question

Use the previous data frame containing mean expression levels per timepoint and create a new column containing fold-changes between timepoint 8 and timepoint 0, and fold-changes between timepoint 8 and timepoint 4. Convert this table into a long-format table gathering the fold-changes calculated.

Solution

Starting from the rna_time tibble:

rna_time

# A tibble: 1,474 × 4
# Groups:   gene [1,474]
   gene         `0`     `4`     `8`
   <chr>      <dbl>   <dbl>   <dbl>
 1 AI504432 1034.   1104.   1014   
 2 AW046200  155.    152.     81   
 3 AW551984  238     302.    342.  
 4 Aamp     4603.   4870    4763.  
 5 Abca12      5.29    4.25    4.14
 6 Abcc8    2576.   2609.   2292.  
 7 Abhd14a   591.    547.    432.  
 8 Abi2     4881.   4903.   4945.  
 9 Abi3bp   1175.   1061.    762.  
10 Abl2     2170.   2078.   2131.  
# ℹ 1,464 more rows

Calculate fold-changes:

rna_time %>%
  mutate(time_8_vs_0 = `8` / `0`, time_8_vs_4 = `8` / `4`)

# A tibble: 1,474 × 6
# Groups:   gene [1,474]
   gene         `0`     `4`     `8` time_8_vs_0 time_8_vs_4
   <chr>      <dbl>   <dbl>   <dbl>       <dbl>       <dbl>
 1 AI504432 1034.   1104.   1014          0.981       0.918
 2 AW046200  155.    152.     81          0.522       0.532
 3 AW551984  238     302.    342.         1.44        1.13 
 4 Aamp     4603.   4870    4763.         1.03        0.978
 5 Abca12      5.29    4.25    4.14       0.784       0.975
 6 Abcc8    2576.   2609.   2292.         0.889       0.878
 7 Abhd14a   591.    547.    432.         0.731       0.791
 8 Abi2     4881.   4903.   4945.         1.01        1.01 
 9 Abi3bp   1175.   1061.    762.         0.649       0.719
10 Abl2     2170.   2078.   2131.         0.982       1.03 
# ℹ 1,464 more rows

And use the pivot_longer() function:

rna_time %>%
  mutate(time_8_vs_0 = `8` / `0`, time_8_vs_4 = `8` / `4`) %>%
  pivot_longer(names_to = "comparisons",
               values_to = "Fold_changes",
               time_8_vs_0:time_8_vs_4)

# A tibble: 2,948 × 6
# Groups:   gene [1,474]
   gene         `0`     `4`     `8` comparisons Fold_changes
   <chr>      <dbl>   <dbl>   <dbl> <chr>              <dbl>
 1 AI504432 1034.   1104.   1014    time_8_vs_0        0.981
 2 AI504432 1034.   1104.   1014    time_8_vs_4        0.918
 3 AW046200  155.    152.     81    time_8_vs_0        0.522
 4 AW046200  155.    152.     81    time_8_vs_4        0.532
 5 AW551984  238     302.    342.   time_8_vs_0        1.44 
 6 AW551984  238     302.    342.   time_8_vs_4        1.13 
 7 Aamp     4603.   4870    4763.   time_8_vs_0        1.03 
 8 Aamp     4603.   4870    4763.   time_8_vs_4        0.978
 9 Abca12      5.29    4.25    4.14 time_8_vs_0        0.784
10 Abca12      5.29    4.25    4.14 time_8_vs_4        0.975
# ℹ 2,938 more rows
…
